# Blender MTL File: 'keran.blend'
# Material Count: 1

newmtl Chrome
Ns 591.729855
Ka 1.000000 1.000000 1.000000
Kd 1.000000 1.000000 1.000000
Ks 1.000000 1.000000 1.000000
Ke 0.000000 0.000000 0.000000
Ni 1.450000
d 1.000000
illum 3
